{"from":1,"to":10,"currentPage":1,"total":469,"totalPages":47,"queryTime":"0.009","totalTime":"0.018","partial":false,"canonicalUrl":"/v1/products(categoryPath.name=All Flat-Screen TVs)?show=sku,name,salePrice,image,regularPrice,onSale&sort=salePrice&format=json&apiKey=xB7rDkDCldT2DlTp7jsHaJU7","products":[{"sku":6501780,"name":"Hisense - 40\" Class A4 Series LED Full HD 1080P Smart Android TV (2022)","salePrice":31.99,"image":"https://pisces.bbystatic.com/prescaled/500/500/image2/BestBuy_US/images/products/6501/6501780_sd.jpg","regularPrice":159.99,"onSale":true},{"sku":6491295,"name":"Insignia™ - 24\" Class F20 Series LED HD Smart Fire TV","salePrice":49.99,"image":"https://pisces.bbystatic.com/prescaled/500/500/image2/BestBuy_US/images/products/ee8ad11f-3c65-425e-97d3-b20962a35f5a.jpg","regularPrice":79.99,"onSale":true},{"sku":6569626,"name":"Pioneer - 24” Class LED HD Xumo Smart TV","salePrice":59.99,"image":"https://pisces.bbystatic.com/prescaled/500/500/image2/BestBuy_US/images/products/051d0b04-a981-417b-86a9-411133fbb963.jpg","regularPrice":89.99,"onSale":true},{"sku":6488966,"name":"Westinghouse - 24\" HD Smart Roku TV","salePrice":74.99,"image":"https://pisces.bbystatic.com/prescaled/500/500/image2/BestBuy_US/images/products/da7f7b5c-b1f2-4fbd-b12c-e240f518519f.jpg","regularPrice":109.99,"onSale":true},{"sku":6482022,"name":"Insignia™ - 32\" Class F20 Series LED HD Smart Fire TV","salePrice":79.99,"image":"https://pisces.bbystatic.com/prescaled/500/500/image2/BestBuy_US/images/products/6482/6482022_sd.jpg","regularPrice":129.99,"onSale":true},{"sku":6490138,"name":"Insignia™ - 24\" Class F20 Series LED Full HD Smart Fire TV","salePrice":79.99,"image":"https://pisces.bbystatic.com/prescaled/500/500/image2/BestBuy_US/images/products/93ca727d-348b-4d1a-b563-ee0fe11fdc24.jpg","regularPrice":109.99,"onSale":true},{"sku":6569962,"name":"Pioneer - 32” Class LED HD Smart Xumo TV","salePrice":79.99,"image":"https://pisces.bbystatic.com/prescaled/500/500/image2/BestBuy_US/images/products/d07998f4-6b8e-4088-bf41-eab20bd909ab.jpg","regularPrice":129.99,"onSale":true},{"sku":6489040,"name":"Westinghouse - 32\" HD Smart Roku TV","salePrice":84.99,"image":"https://pisces.bbystatic.com/prescaled/500/500/image2/BestBuy_US/images/products/3c8f3f11-8bdb-4042-ba12-d3f8465386c7.jpg","regularPrice":119.99,"onSale":true},{"sku":6202106,"name":"Samsung - 32\" Class N5300 Series LED Full HD Smart Tizen TV (2018)","salePrice":99.99,"image":"https://pisces.bbystatic.com/prescaled/500/500/image2/BestBuy_US/images/products/6202/6202106_sd.jpg","regularPrice":229.99,"onSale":true},{"sku":6495086,"name":"Insignia™ - 32\" Class F20 Series LED Full HD Smart Fire TV","salePrice":99.99,"image":"https://pisces.bbystatic.com/prescaled/500/500/image2/BestBuy_US/images/products/728f4733-c907-4c64-b8c7-3c32ae1b448f.jpg","regularPrice":169.99,"onSale":true}]}